<svg width="179" height="58" viewBox="0 0 179 58" fill="none" xmlns="http://www.w3.org/2000/svg">
<path d="M77.3639 32.2438C78.1784 33.2584 78.5836 34.4462 78.5836 35.8072C78.5836 37.7044 77.9533 39.2015 76.6967 40.2986C75.436 41.3956 73.6146 41.9442 71.2242 41.9442H61.6136V19.3801H71.0318C73.2953 19.3801 75.0308 19.8833 76.2506 20.8814C77.4662 21.8836 78.0761 23.29 78.0761 25.1005C78.0761 26.5069 77.7118 27.6576 76.9832 28.5526C76.2547 29.4475 75.2969 30.0332 74.114 30.3095C75.4647 30.59 76.5494 31.2334 77.3639 32.2438ZM66.0874 28.8413H70.115C71.2365 28.8413 72.0879 28.5897 72.6691 28.0906C73.2503 27.5916 73.5409 26.8699 73.5409 25.9336C73.5409 24.9974 73.2544 24.2715 72.6855 23.7601C72.1124 23.2487 71.2365 22.993 70.0536 22.993H66.0874V28.8413ZM73.0661 37.4858C73.7005 36.962 74.0198 36.2031 74.0198 35.2009C74.0198 34.1987 73.6965 33.4275 73.0538 32.8831C72.4071 32.3387 71.4944 32.0665 70.3115 32.0665H66.0915V38.2653H70.3401C71.523 38.2694 72.4317 38.0096 73.0661 37.4858Z" fill="#0064AA"/>
<path d="M96.5687 41.9442L91.3337 33.1553H89.369V41.9442H84.8952V19.3801H93.4293C96.0285 19.3801 98.0136 20.0194 99.3766 21.2979C100.74 22.5765 101.423 24.2592 101.423 26.3461C101.423 28.0494 100.952 29.4764 100.011 30.6271C99.0696 31.7778 97.7107 32.5449 95.9343 32.9284L101.517 41.94H96.5687V41.9442ZM89.369 30.0538H93.0487C95.6069 30.0538 96.888 28.9155 96.888 26.6348C96.888 25.5501 96.5769 24.7005 95.9507 24.0942C95.3285 23.4879 94.3585 23.1827 93.0487 23.1827H89.369V30.0538Z" fill="#0064AA"/>
<path d="M121.246 37.4075H112.27L110.686 41.9442H105.958L114.206 19.6359H119.314L127.529 41.9442H122.802L121.246 37.4075ZM120.039 33.9884L116.74 24.4654L113.441 33.9884H120.039Z" fill="#0064AA"/>
<path d="M152.071 41.9442H147.598L137.574 26.6018V41.9442H133.1V19.3801H137.574L147.598 34.8504V19.3801H152.071V41.9442Z" fill="#0064AA"/>
<path d="M177.604 36.5455C176.671 38.2488 175.324 39.5768 173.56 40.5254C171.796 41.474 169.696 41.9483 167.265 41.9483H159.304V19.3801H167.265C169.696 19.3801 171.796 19.842 173.56 20.77C175.324 21.698 176.675 23.0054 177.604 24.7005C178.533 26.3956 179 28.3711 179 30.6312C179 32.8666 178.537 34.838 177.604 36.5455ZM172.484 36.0011C173.806 34.7225 174.465 32.9326 174.465 30.6312C174.465 28.3092 173.802 26.5069 172.484 25.2284C171.162 23.9498 169.295 23.3106 166.884 23.3106H163.778V37.9147H166.884C169.295 37.9188 171.162 37.2796 172.484 36.0011Z" fill="#0064AA"/>
<path d="M30.4896 43.0164C26.7321 43.0164 23.0361 42.0142 19.7902 40.117L23.9243 32.9366C25.9135 34.0997 28.1811 34.7142 30.4896 34.7142C37.7181 34.7142 43.5958 28.7876 43.5958 21.5082C43.5958 14.2247 37.714 8.30221 30.4896 8.30221C28.1852 8.30221 25.9135 8.91673 23.9243 10.0798L19.7943 2.89938C23.0361 1.0022 26.7362 0 30.4896 0C42.2573 0 51.8352 9.64673 51.8352 21.5082C51.8352 33.3656 42.2614 43.0164 30.4896 43.0164Z" fill="#0064AA"/>
<path d="M30.312 38.5743C31.4143 33.8704 28.5235 29.1567 23.8551 28.0459C19.1868 26.9352 14.5087 29.8481 13.4063 34.552C12.304 39.2559 15.1949 43.9696 19.8632 45.0804C24.5316 46.1911 29.2096 43.2782 30.312 38.5743Z" fill="#0064AA"/>
<path d="M21.3087 58C9.56151 58 0 48.3657 0 36.5289C0 24.6881 9.56151 15.0537 21.3087 15.0537C27.6899 15.0537 33.6863 17.8995 37.7508 22.8651L31.3983 28.1484C28.9015 25.1005 25.2259 23.3518 21.3087 23.3518C14.1008 23.3518 8.23534 29.2619 8.23534 36.5248C8.23534 43.7877 14.1008 49.6978 21.3087 49.6978C24.9557 49.6978 28.3407 48.2213 30.8375 45.5446L36.8421 51.2279C32.8309 55.5337 27.1701 58 21.3087 58Z" fill="#0064AA"/>
</svg>
