<svg width="102" height="33" viewBox="0 0 102 33" fill="none" xmlns="http://www.w3.org/2000/svg">
<path d="M44.0845 18.3456C44.5486 18.9229 44.7795 19.5987 44.7795 20.3731C44.7795 21.4525 44.4203 22.3043 43.7043 22.9285C42.9859 23.5527 41.948 23.8648 40.5859 23.8648H35.1094V11.0266H40.4763C41.7661 11.0266 42.755 11.3129 43.4501 11.8808C44.1428 12.451 44.4903 13.2512 44.4903 14.2813C44.4903 15.0815 44.2827 15.7362 43.8676 16.2454C43.4524 16.7546 42.9066 17.0878 42.2326 17.2451C43.0022 17.4046 43.6203 17.7707 44.0845 18.3456ZM37.6587 16.4097H39.9538C40.5929 16.4097 41.078 16.2665 41.4092 15.9826C41.7404 15.6987 41.906 15.288 41.906 14.7553C41.906 14.2227 41.7428 13.8097 41.4185 13.5187C41.092 13.2277 40.5929 13.0822 39.9188 13.0822H37.6587V16.4097ZM41.6355 21.3281C41.997 21.0301 42.1789 20.5983 42.1789 20.0281C42.1789 19.4579 41.9946 19.0191 41.6285 18.7093C41.2599 18.3996 40.7398 18.2447 40.0658 18.2447H37.6611V21.7716H40.0821C40.7562 21.774 41.2739 21.6261 41.6355 21.3281Z" fill="#0064AA"/>
<path d="M55.0281 23.8648L52.0449 18.8642H50.9254V23.8648H48.3761V11.0266H53.2391C54.7202 11.0266 55.8514 11.3903 56.6281 12.1178C57.4048 12.8452 57.7943 13.8026 57.7943 14.99C57.7943 15.9591 57.526 16.771 56.9896 17.4257C56.4532 18.0804 55.6788 18.5169 54.6665 18.7351L57.8479 23.8624H55.0281V23.8648ZM50.9254 17.0996H53.0222C54.48 17.0996 55.21 16.4519 55.21 15.1543C55.21 14.5371 55.0327 14.0537 54.6759 13.7088C54.3213 13.3638 53.7686 13.1902 53.0222 13.1902H50.9254V17.0996Z" fill="#0064AA"/>
<path d="M69.09 21.2835H63.9751L63.0725 23.8648H60.3785L65.0783 11.1721H67.9891L72.6702 23.8648H69.9763L69.09 21.2835ZM68.4019 19.3382L66.522 13.92L64.6421 19.3382H68.4019Z" fill="#0064AA"/>
<path d="M86.6552 23.8648H84.1059L78.3939 15.1355V23.8648H75.8446V11.0266H78.3939L84.1059 19.8286V11.0266H86.6552V23.8648Z" fill="#0064AA"/>
<path d="M101.205 20.7931C100.673 21.7622 99.9055 22.5178 98.9002 23.0575C97.895 23.5973 96.6985 23.8671 95.313 23.8671H90.7766V11.0266H95.313C96.6985 11.0266 97.895 11.2894 98.9002 11.8174C99.9055 12.3454 100.675 13.0893 101.205 14.0537C101.734 15.0181 102 16.1422 102 17.4281C102 18.6999 101.736 19.8216 101.205 20.7931ZM98.2868 20.4833C99.0402 19.7559 99.4157 18.7375 99.4157 17.4281C99.4157 16.107 99.0379 15.0815 98.2868 14.3541C97.5335 13.6266 96.4699 13.2629 95.0961 13.2629H93.3258V21.5722H95.0961C96.4699 21.5745 97.5335 21.2108 98.2868 20.4833Z" fill="#0064AA"/>
<path d="M17.374 24.4749C15.2328 24.4749 13.1267 23.9046 11.2771 22.8252L13.6328 18.7398C14.7664 19.4016 16.0585 19.7512 17.374 19.7512C21.493 19.7512 24.8423 16.3792 24.8423 12.2374C24.8423 8.09337 21.4906 4.72367 17.374 4.72367C16.0608 4.72367 14.7664 5.07331 13.6328 5.73505L11.2794 1.64965C13.1267 0.57022 15.2352 0 17.374 0C24.0796 0 29.5374 5.48866 29.5374 12.2374C29.5374 18.9839 24.0819 24.4749 17.374 24.4749Z" fill="#0064AA"/>
<path d="M17.2727 21.9474C17.9009 19.2711 16.2536 16.5891 13.5934 15.9572C10.9332 15.3252 8.26751 16.9825 7.63937 19.6589C7.01123 22.3353 8.65852 25.0172 11.3187 25.6492C13.9789 26.2811 16.6446 24.6238 17.2727 21.9474Z" fill="#0064AA"/>
<path d="M12.1424 33C5.44846 33 0 27.5184 0 20.7837C0 14.0467 5.44846 8.56506 12.1424 8.56506C15.7786 8.56506 19.1956 10.1842 21.5116 13.0095L17.8918 16.0155C16.469 14.2813 14.3745 13.2864 12.1424 13.2864C8.03508 13.2864 4.69277 16.649 4.69277 20.7814C4.69277 24.9137 8.03508 28.2764 12.1424 28.2764C14.2206 28.2764 16.1495 27.4363 17.5722 25.9134L20.9938 29.1469C18.7081 31.5968 15.4824 33 12.1424 33Z" fill="#0064AA"/>
</svg>
