<svg width="67" height="80" viewBox="0 0 67 80" fill="none" xmlns="http://www.w3.org/2000/svg">
<rect width="117" height="80" rx="40" fill="white"/>
<rect x="1" y="1" width="115" height="78" rx="39" stroke="#262262" stroke-opacity="0.3" stroke-width="2"/>
<path d="M24 27L37 40L24 53" stroke="#262262" stroke-width="2"/>
</svg>
